{
    "totalItems": 35,
    "totalPages": 4,
    "page": 1,
    "list": [
        {
            "userID": "daisy",
            "userName": "林惟翔",
            "userDept": "主任秘書辦公室",
            "userEmail": "charlot@hyweb.com.tw",
            "userStatus": "使用中",
            "selectable": false
        },
        {
            "userID": "MYBMW7274",
            "userName": "劉昭麟",
            "userDept": "主任秘書辦公室",
            "userEmail": "charlot@hyweb.com.tw",
            "userStatus": "使用中",
            "selectable": false
        },
        {
            "userID": "wt1028",
            "userName": "梁文韜",
            "userDept": "主任秘書辦公室",
            "userEmail": "charlot@hyweb.com.tw",
            "userStatus": "使用中",
            "selectable": true
        },
        {
            "userID": "kikiabx",
            "userName": "陳佳婷",
            "userDept": "主任秘書辦公室",
            "userEmail": "charlot@hyweb.com.tw",
            "userStatus": "使用中",
            "selectable": true
        },
        {
            "userID": "ljc",
            "userName": "李榮哲",
            "userDept": "主任秘書辦公室",
            "userEmail": "charlot@hyweb.com.tw",
            "userStatus": "使用中",
            "selectable": true
        },
        {
            "userID": "coco",
            "userName": "鄭玉君",
            "userDept": "主任秘書辦公室",
            "userEmail": "charlot@hyweb.com.tw",
            "userStatus": "使用中",
            "selectable": true
        },
        {
            "userID": "lv50317111",
            "userName": "陳愷璜111",
            "userDept": "主任秘書辦公室",
            "userEmail": "charlot@hyweb.com.tw",
            "userStatus": "使用中",
            "selectable": true
        },
        {
            "userID": "lv50317222",
            "userName": "陳愷璜222",
            "userDept": "主任秘書辦公室",
            "userEmail": "charlot@hyweb.com.tw",
            "userStatus": "使用中",
            "selectable": true
        },
        {
            "userID": "lv50317333",
            "userName": "陳愷璜333",
            "userDept": "主任秘書辦公室",
            "userEmail": "charlot@hyweb.com.tw",
            "userStatus": "使用中",
            "selectable": true
        },
        {
            "userID": "lv50317444",
            "userName": "陳愷璜444",
            "userDept": "主任秘書辦公室",
            "userEmail": "charlot@hyweb.com.tw",
            "userStatus": "使用中",
            "selectable": true
        }
    ]
}